<SOAP-ENV:Envelope xmlns:SOAP-ENV="http://schemas.xmlsoap.org/soap/envelope/">
   <SOAP-ENV:Header/>
   <SOAP-ENV:Body>
      <RateReply xmlns="http://fedex.com/ws/rate/v31">
         <HighestSeverity>SUCCESS</HighestSeverity>
         <Notifications>
            <Severity>SUCCESS</Severity>
            <Source>crs</Source>
            <Code>0</Code>
            <Message>Request was successfully processed.</Message>
            <LocalizedMessage>Request was successfully processed.</LocalizedMessage>
         </Notifications>
         <TransactionDetail>
            <CustomerTransactionId>Domestic Express With SIGNATURE_OPTION_DIRECT</CustomerTransactionId>
         </TransactionDetail>
         <Version>
            <ServiceId>crs</ServiceId>
            <Major>31</Major>
            <Intermediate>0</Intermediate>
            <Minor>0</Minor>
         </Version>
         <RateReplyDetails>
            <ServiceType>PRIORITY_OVERNIGHT</ServiceType>
            <ServiceDescription>
               <ServiceType>PRIORITY_OVERNIGHT</ServiceType>
               <Code>01</Code>
               <Names>
                  <Type>long</Type>
                  <Encoding>utf-8</Encoding>
                  <Value>FedEx Priority Overnight®</Value>
               </Names>
               <Names>
                  <Type>long</Type>
                  <Encoding>ascii</Encoding>
                  <Value>FedEx Priority Overnight</Value>
               </Names>
               <Names>
                  <Type>medium</Type>
                  <Encoding>utf-8</Encoding>
                  <Value>FedEx Priority Overnight®</Value>
               </Names>
               <Names>
                  <Type>medium</Type>
                  <Encoding>ascii</Encoding>
                  <Value>FedEx Priority Overnight</Value>
               </Names>
               <Names>
                  <Type>short</Type>
                  <Encoding>utf-8</Encoding>
                  <Value>P-1</Value>
               </Names>
               <Names>
                  <Type>short</Type>
                  <Encoding>ascii</Encoding>
                  <Value>P-1</Value>
               </Names>
               <Names>
                  <Type>abbrv</Type>
                  <Encoding>ascii</Encoding>
                  <Value>PO</Value>
               </Names>
               <Description>Priority Overnight</Description>
               <AstraDescription>P1</AstraDescription>
            </ServiceDescription>
            <PackagingType>YOUR_PACKAGING</PackagingType>
            <DestinationAirportId>MEM</DestinationAirportId>
            <IneligibleForMoneyBackGuarantee>false</IneligibleForMoneyBackGuarantee>
            <OriginServiceArea>A1</OriginServiceArea>
            <DestinationServiceArea>A2</DestinationServiceArea>
            <SignatureOption>DIRECT</SignatureOption>
            <ActualRateType>PAYOR_ACCOUNT_PACKAGE</ActualRateType>
            <RatedShipmentDetails>
               <EffectiveNetDiscount>
                  <Currency>USD</Currency>
                  <Amount>0.0</Amount>
               </EffectiveNetDiscount>
               <ShipmentRateDetail>
                  <RateType>PAYOR_ACCOUNT_PACKAGE</RateType>
                  <RateScale>1530</RateScale>
                  <RateZone>04</RateZone>
                  <PricingCode>PACKAGE</PricingCode>
                  <RatedWeightMethod>ACTUAL</RatedWeightMethod>
                  <DimDivisor>139</DimDivisor>
                  <FuelSurchargePercent>5.5</FuelSurchargePercent>
                  <TotalBillingWeight>
                     <Units>LB</Units>
                     <Value>20.0</Value>
                  </TotalBillingWeight>
                  <TotalBaseCharge>
                     <Currency>USD</Currency>
                     <Amount>165.89</Amount>
                  </TotalBaseCharge>
                  <TotalFreightDiscounts>
                     <Currency>USD</Currency>
                     <Amount>0.0</Amount>
                  </TotalFreightDiscounts>
                  <TotalNetFreight>
                     <Currency>USD</Currency>
                     <Amount>165.89</Amount>
                  </TotalNetFreight>
                  <TotalSurcharges>
                     <Currency>USD</Currency>
                     <Amount>14.66</Amount>
                  </TotalSurcharges>
                  <TotalNetFedExCharge>
                     <Currency>USD</Currency>
                     <Amount>180.55</Amount>
                  </TotalNetFedExCharge>
                  <TotalTaxes>
                     <Currency>USD</Currency>
                     <Amount>0.0</Amount>
                  </TotalTaxes>
                  <TotalNetCharge>
                     <Currency>USD</Currency>
                     <Amount>180.55</Amount>
                  </TotalNetCharge>
                  <TotalRebates>
                     <Currency>USD</Currency>
                     <Amount>0.0</Amount>
                  </TotalRebates>
                  <TotalDutiesAndTaxes>
                     <Currency>USD</Currency>
                     <Amount>0.0</Amount>
                  </TotalDutiesAndTaxes>
                  <TotalAncillaryFeesAndTaxes>
                     <Currency>USD</Currency>
                     <Amount>0.0</Amount>
                  </TotalAncillaryFeesAndTaxes>
                  <TotalDutiesTaxesAndFees>
                     <Currency>USD</Currency>
                     <Amount>0.0</Amount>
                  </TotalDutiesTaxesAndFees>
                  <TotalNetChargeWithDutiesAndTaxes>
                     <Currency>USD</Currency>
                     <Amount>180.55</Amount>
                  </TotalNetChargeWithDutiesAndTaxes>
                  <Surcharges>
                     <SurchargeType>SIGNATURE_OPTION</SurchargeType>
                     <Description>Direct signature required</Description>
                     <Amount>
                        <Currency>USD</Currency>
                        <Amount>5.25</Amount>
                     </Amount>
                  </Surcharges>
                  <Surcharges>
                     <SurchargeType>FUEL</SurchargeType>
                     <Description>Fuel</Description>
                     <Amount>
                        <Currency>USD</Currency>
                        <Amount>9.41</Amount>
                     </Amount>
                  </Surcharges>
               </ShipmentRateDetail>
               <RatedPackages>
                  <GroupNumber>1</GroupNumber>
                  <EffectiveNetDiscount>
                     <Currency>USD</Currency>
                     <Amount>0.0</Amount>
                  </EffectiveNetDiscount>
                  <PackageRateDetail>
                     <RateType>PAYOR_ACCOUNT_PACKAGE</RateType>
                     <RatedWeightMethod>ACTUAL</RatedWeightMethod>
                     <BillingWeight>
                        <Units>LB</Units>
                        <Value>20.0</Value>
                     </BillingWeight>
                     <BaseCharge>
                        <Currency>USD</Currency>
                        <Amount>165.89</Amount>
                     </BaseCharge>
                     <TotalFreightDiscounts>
                        <Currency>USD</Currency>
                        <Amount>0.0</Amount>
                     </TotalFreightDiscounts>
                     <NetFreight>
                        <Currency>USD</Currency>
                        <Amount>165.89</Amount>
                     </NetFreight>
                     <TotalSurcharges>
                        <Currency>USD</Currency>
                        <Amount>14.66</Amount>
                     </TotalSurcharges>
                     <NetFedExCharge>
                        <Currency>USD</Currency>
                        <Amount>180.55</Amount>
                     </NetFedExCharge>
                     <TotalTaxes>
                        <Currency>USD</Currency>
                        <Amount>0.0</Amount>
                     </TotalTaxes>
                     <NetCharge>
                        <Currency>USD</Currency>
                        <Amount>180.55</Amount>
                     </NetCharge>
                     <TotalRebates>
                        <Currency>USD</Currency>
                        <Amount>0.0</Amount>
                     </TotalRebates>
                     <Surcharges>
                        <SurchargeType>SIGNATURE_OPTION</SurchargeType>
                        <Description>Direct signature required</Description>
                        <Amount>
                           <Currency>USD</Currency>
                           <Amount>5.25</Amount>
                        </Amount>
                     </Surcharges>
                     <Surcharges>
                        <SurchargeType>FUEL</SurchargeType>
                        <Description>Fuel</Description>
                        <Amount>
                           <Currency>USD</Currency>
                           <Amount>9.41</Amount>
                        </Amount>
                     </Surcharges>
                  </PackageRateDetail>
               </RatedPackages>
            </RatedShipmentDetails>
            <RatedShipmentDetails>
               <ShipmentRateDetail>
                  <RateType>PAYOR_LIST_PACKAGE</RateType>
                  <RateScale>1530</RateScale>
                  <RateZone>04</RateZone>
                  <PricingCode>PACKAGE</PricingCode>
                  <RatedWeightMethod>ACTUAL</RatedWeightMethod>
                  <DimDivisor>139</DimDivisor>
                  <FuelSurchargePercent>5.5</FuelSurchargePercent>
                  <TotalBillingWeight>
                     <Units>LB</Units>
                     <Value>20.0</Value>
                  </TotalBillingWeight>
                  <TotalBaseCharge>
                     <Currency>USD</Currency>
                     <Amount>165.89</Amount>
                  </TotalBaseCharge>
                  <TotalFreightDiscounts>
                     <Currency>USD</Currency>
                     <Amount>0.0</Amount>
                  </TotalFreightDiscounts>
                  <TotalNetFreight>
                     <Currency>USD</Currency>
                     <Amount>165.89</Amount>
                  </TotalNetFreight>
                  <TotalSurcharges>
                     <Currency>USD</Currency>
                     <Amount>14.66</Amount>
                  </TotalSurcharges>
                  <TotalNetFedExCharge>
                     <Currency>USD</Currency>
                     <Amount>180.55</Amount>
                  </TotalNetFedExCharge>
                  <TotalTaxes>
                     <Currency>USD</Currency>
                     <Amount>0.0</Amount>
                  </TotalTaxes>
                  <TotalNetCharge>
                     <Currency>USD</Currency>
                     <Amount>180.55</Amount>
                  </TotalNetCharge>
                  <TotalRebates>
                     <Currency>USD</Currency>
                     <Amount>0.0</Amount>
                  </TotalRebates>
                  <TotalDutiesAndTaxes>
                     <Currency>USD</Currency>
                     <Amount>0.0</Amount>
                  </TotalDutiesAndTaxes>
                  <TotalAncillaryFeesAndTaxes>
                     <Currency>USD</Currency>
                     <Amount>0.0</Amount>
                  </TotalAncillaryFeesAndTaxes>
                  <TotalDutiesTaxesAndFees>
                     <Currency>USD</Currency>
                     <Amount>0.0</Amount>
                  </TotalDutiesTaxesAndFees>
                  <TotalNetChargeWithDutiesAndTaxes>
                     <Currency>USD</Currency>
                     <Amount>180.55</Amount>
                  </TotalNetChargeWithDutiesAndTaxes>
                  <Surcharges>
                     <SurchargeType>SIGNATURE_OPTION</SurchargeType>
                     <Description>Direct signature required</Description>
                     <Amount>
                        <Currency>USD</Currency>
                        <Amount>5.25</Amount>
                     </Amount>
                  </Surcharges>
                  <Surcharges>
                     <SurchargeType>FUEL</SurchargeType>
                     <Description>Fuel</Description>
                     <Amount>
                        <Currency>USD</Currency>
                        <Amount>9.41</Amount>
                     </Amount>
                  </Surcharges>
               </ShipmentRateDetail>
               <RatedPackages>
                  <GroupNumber>1</GroupNumber>
                  <PackageRateDetail>
                     <RateType>PAYOR_LIST_PACKAGE</RateType>
                     <RatedWeightMethod>ACTUAL</RatedWeightMethod>
                     <BillingWeight>
                        <Units>LB</Units>
                        <Value>20.0</Value>
                     </BillingWeight>
                     <BaseCharge>
                        <Currency>USD</Currency>
                        <Amount>165.89</Amount>
                     </BaseCharge>
                     <TotalFreightDiscounts>
                        <Currency>USD</Currency>
                        <Amount>0.0</Amount>
                     </TotalFreightDiscounts>
                     <NetFreight>
                        <Currency>USD</Currency>
                        <Amount>165.89</Amount>
                     </NetFreight>
                     <TotalSurcharges>
                        <Currency>USD</Currency>
                        <Amount>14.66</Amount>
                     </TotalSurcharges>
                     <NetFedExCharge>
                        <Currency>USD</Currency>
                        <Amount>180.55</Amount>
                     </NetFedExCharge>
                     <TotalTaxes>
                        <Currency>USD</Currency>
                        <Amount>0.0</Amount>
                     </TotalTaxes>
                     <NetCharge>
                        <Currency>USD</Currency>
                        <Amount>180.55</Amount>
                     </NetCharge>
                     <TotalRebates>
                        <Currency>USD</Currency>
                        <Amount>0.0</Amount>
                     </TotalRebates>
                     <Surcharges>
                        <SurchargeType>SIGNATURE_OPTION</SurchargeType>
                        <Description>Direct signature required</Description>
                        <Amount>
                           <Currency>USD</Currency>
                           <Amount>5.25</Amount>
                        </Amount>
                     </Surcharges>
                     <Surcharges>
                        <SurchargeType>FUEL</SurchargeType>
                        <Description>Fuel</Description>
                        <Amount>
                           <Currency>USD</Currency>
                           <Amount>9.41</Amount>
                        </Amount>
                     </Surcharges>
                  </PackageRateDetail>
               </RatedPackages>
            </RatedShipmentDetails>
         </RateReplyDetails>
      </RateReply>
   </SOAP-ENV:Body>
</SOAP-ENV:Envelope>
