<SOAP-ENV:Envelope xmlns:SOAP-ENV="http://schemas.xmlsoap.org/soap/envelope/">
   <SOAP-ENV:Header/>
   <SOAP-ENV:Body>
      <RateReply xmlns="http://fedex.com/ws/rate/v31">
         <HighestSeverity>SUCCESS</HighestSeverity>
         <Notifications>
            <Severity>SUCCESS</Severity>
            <Source>crs</Source>
            <Code>0</Code>
            <Message>Request was successfully processed.</Message>
            <LocalizedMessage>Request was successfully processed.</LocalizedMessage>
         </Notifications>
         <TransactionDetail>
            <CustomerTransactionId>DomesticGround with MPS</CustomerTransactionId>
         </TransactionDetail>
         <Version>
            <ServiceId>crs</ServiceId>
            <Major>31</Major>
            <Intermediate>0</Intermediate>
            <Minor>0</Minor>
         </Version>
         <RateReplyDetails>
            <ServiceType>FEDEX_GROUND</ServiceType>
            <ServiceDescription>
               <ServiceType>FEDEX_GROUND</ServiceType>
               <Code>92</Code>
               <Names>
                  <Type>long</Type>
                  <Encoding>utf-8</Encoding>
                  <Value>FedEx Ground®</Value>
               </Names>
               <Names>
                  <Type>long</Type>
                  <Encoding>ascii</Encoding>
                  <Value>FedEx Ground</Value>
               </Names>
               <Names>
                  <Type>medium</Type>
                  <Encoding>utf-8</Encoding>
                  <Value>Ground®</Value>
               </Names>
               <Names>
                  <Type>medium</Type>
                  <Encoding>ascii</Encoding>
                  <Value>Ground</Value>
               </Names>
               <Names>
                  <Type>short</Type>
                  <Encoding>utf-8</Encoding>
                  <Value>FG</Value>
               </Names>
               <Names>
                  <Type>short</Type>
                  <Encoding>ascii</Encoding>
                  <Value>FG</Value>
               </Names>
               <Names>
                  <Type>abbrv</Type>
                  <Encoding>ascii</Encoding>
                  <Value>SG</Value>
               </Names>
               <Description>FedEx Ground</Description>
               <AstraDescription>FXG</AstraDescription>
            </ServiceDescription>
            <PackagingType>YOUR_PACKAGING</PackagingType>
            <DestinationAirportId>MEM</DestinationAirportId>
            <IneligibleForMoneyBackGuarantee>false</IneligibleForMoneyBackGuarantee>
            <SignatureOption>SERVICE_DEFAULT</SignatureOption>
            <ActualRateType>PAYOR_ACCOUNT_PACKAGE</ActualRateType>
            <RatedShipmentDetails>
               <EffectiveNetDiscount>
                  <Currency>USD</Currency>
                  <Amount>1.32</Amount>
               </EffectiveNetDiscount>
               <ShipmentRateDetail>
                  <RateType>PAYOR_ACCOUNT_PACKAGE</RateType>
                  <RateZone>4</RateZone>
                  <RatedWeightMethod>ACTUAL</RatedWeightMethod>
                  <DimDivisor>0</DimDivisor>
                  <FuelSurchargePercent>2.5</FuelSurchargePercent>
                  <TotalBillingWeight>
                     <Units>LB</Units>
                     <Value>40.0</Value>
                  </TotalBillingWeight>
                  <TotalBaseCharge>
                     <Currency>USD</Currency>
                     <Amount>32.9</Amount>
                  </TotalBaseCharge>
                  <TotalFreightDiscounts>
                     <Currency>USD</Currency>
                     <Amount>0.0</Amount>
                  </TotalFreightDiscounts>
                  <TotalNetFreight>
                     <Currency>USD</Currency>
                     <Amount>32.9</Amount>
                  </TotalNetFreight>
                  <TotalSurcharges>
                     <Currency>USD</Currency>
                     <Amount>0.82</Amount>
                  </TotalSurcharges>
                  <TotalNetFedExCharge>
                     <Currency>USD</Currency>
                     <Amount>33.72</Amount>
                  </TotalNetFedExCharge>
                  <TotalTaxes>
                     <Currency>USD</Currency>
                     <Amount>0.0</Amount>
                  </TotalTaxes>
                  <TotalNetCharge>
                     <Currency>USD</Currency>
                     <Amount>33.72</Amount>
                  </TotalNetCharge>
                  <TotalRebates>
                     <Currency>USD</Currency>
                     <Amount>0.0</Amount>
                  </TotalRebates>
                  <TotalDutiesAndTaxes>
                     <Currency>USD</Currency>
                     <Amount>0.0</Amount>
                  </TotalDutiesAndTaxes>
                  <TotalAncillaryFeesAndTaxes>
                     <Currency>USD</Currency>
                     <Amount>0.0</Amount>
                  </TotalAncillaryFeesAndTaxes>
                  <TotalDutiesTaxesAndFees>
                     <Currency>USD</Currency>
                     <Amount>0.0</Amount>
                  </TotalDutiesTaxesAndFees>
                  <TotalNetChargeWithDutiesAndTaxes>
                     <Currency>USD</Currency>
                     <Amount>33.72</Amount>
                  </TotalNetChargeWithDutiesAndTaxes>
                  <Surcharges>
                     <SurchargeType>FUEL</SurchargeType>
                     <Level>PACKAGE</Level>
                     <Description>FedEx Ground Fuel</Description>
                     <Amount>
                        <Currency>USD</Currency>
                        <Amount>0.82</Amount>
                     </Amount>
                  </Surcharges>
               </ShipmentRateDetail>
               <RatedPackages>
                  <GroupNumber>1</GroupNumber>
                  <EffectiveNetDiscount>
                     <Currency>USD</Currency>
                     <Amount>0.66</Amount>
                  </EffectiveNetDiscount>
                  <PackageRateDetail>
                     <RateType>PAYOR_ACCOUNT_PACKAGE</RateType>
                     <RatedWeightMethod>ACTUAL</RatedWeightMethod>
                     <BillingWeight>
                        <Units>LB</Units>
                        <Value>20.0</Value>
                     </BillingWeight>
                     <BaseCharge>
                        <Currency>USD</Currency>
                        <Amount>16.45</Amount>
                     </BaseCharge>
                     <TotalFreightDiscounts>
                        <Currency>USD</Currency>
                        <Amount>0.0</Amount>
                     </TotalFreightDiscounts>
                     <NetFreight>
                        <Currency>USD</Currency>
                        <Amount>16.45</Amount>
                     </NetFreight>
                     <TotalSurcharges>
                        <Currency>USD</Currency>
                        <Amount>0.41</Amount>
                     </TotalSurcharges>
                     <NetFedExCharge>
                        <Currency>USD</Currency>
                        <Amount>16.86</Amount>
                     </NetFedExCharge>
                     <TotalTaxes>
                        <Currency>USD</Currency>
                        <Amount>0.0</Amount>
                     </TotalTaxes>
                     <NetCharge>
                        <Currency>USD</Currency>
                        <Amount>16.86</Amount>
                     </NetCharge>
                     <TotalRebates>
                        <Currency>USD</Currency>
                        <Amount>0.0</Amount>
                     </TotalRebates>
                     <Surcharges>
                        <SurchargeType>FUEL</SurchargeType>
                        <Level>PACKAGE</Level>
                        <Description>FedEx Ground Fuel</Description>
                        <Amount>
                           <Currency>USD</Currency>
                           <Amount>0.41</Amount>
                        </Amount>
                     </Surcharges>
                  </PackageRateDetail>
               </RatedPackages>
               <RatedPackages>
                  <GroupNumber>1</GroupNumber>
                  <EffectiveNetDiscount>
                     <Currency>USD</Currency>
                     <Amount>0.66</Amount>
                  </EffectiveNetDiscount>
                  <PackageRateDetail>
                     <RateType>PAYOR_ACCOUNT_PACKAGE</RateType>
                     <RatedWeightMethod>ACTUAL</RatedWeightMethod>
                     <BillingWeight>
                        <Units>LB</Units>
                        <Value>20.0</Value>
                     </BillingWeight>
                     <BaseCharge>
                        <Currency>USD</Currency>
                        <Amount>16.45</Amount>
                     </BaseCharge>
                     <TotalFreightDiscounts>
                        <Currency>USD</Currency>
                        <Amount>0.0</Amount>
                     </TotalFreightDiscounts>
                     <NetFreight>
                        <Currency>USD</Currency>
                        <Amount>16.45</Amount>
                     </NetFreight>
                     <TotalSurcharges>
                        <Currency>USD</Currency>
                        <Amount>0.41</Amount>
                     </TotalSurcharges>
                     <NetFedExCharge>
                        <Currency>USD</Currency>
                        <Amount>16.86</Amount>
                     </NetFedExCharge>
                     <TotalTaxes>
                        <Currency>USD</Currency>
                        <Amount>0.0</Amount>
                     </TotalTaxes>
                     <NetCharge>
                        <Currency>USD</Currency>
                        <Amount>16.86</Amount>
                     </NetCharge>
                     <TotalRebates>
                        <Currency>USD</Currency>
                        <Amount>0.0</Amount>
                     </TotalRebates>
                     <Surcharges>
                        <SurchargeType>FUEL</SurchargeType>
                        <Level>PACKAGE</Level>
                        <Description>FedEx Ground Fuel</Description>
                        <Amount>
                           <Currency>USD</Currency>
                           <Amount>0.41</Amount>
                        </Amount>
                     </Surcharges>
                  </PackageRateDetail>
               </RatedPackages>
            </RatedShipmentDetails>
            <RatedShipmentDetails>
               <ShipmentRateDetail>
                  <RateType>PAYOR_LIST_PACKAGE</RateType>
                  <RateZone>4</RateZone>
                  <RatedWeightMethod>ACTUAL</RatedWeightMethod>
                  <DimDivisor>0</DimDivisor>
                  <FuelSurchargePercent>6.5</FuelSurchargePercent>
                  <TotalBillingWeight>
                     <Units>LB</Units>
                     <Value>40.0</Value>
                  </TotalBillingWeight>
                  <TotalBaseCharge>
                     <Currency>USD</Currency>
                     <Amount>32.9</Amount>
                  </TotalBaseCharge>
                  <TotalFreightDiscounts>
                     <Currency>USD</Currency>
                     <Amount>0.0</Amount>
                  </TotalFreightDiscounts>
                  <TotalNetFreight>
                     <Currency>USD</Currency>
                     <Amount>32.9</Amount>
                  </TotalNetFreight>
                  <TotalSurcharges>
                     <Currency>USD</Currency>
                     <Amount>2.14</Amount>
                  </TotalSurcharges>
                  <TotalNetFedExCharge>
                     <Currency>USD</Currency>
                     <Amount>35.04</Amount>
                  </TotalNetFedExCharge>
                  <TotalTaxes>
                     <Currency>USD</Currency>
                     <Amount>0.0</Amount>
                  </TotalTaxes>
                  <TotalNetCharge>
                     <Currency>USD</Currency>
                     <Amount>35.04</Amount>
                  </TotalNetCharge>
                  <TotalRebates>
                     <Currency>USD</Currency>
                     <Amount>0.0</Amount>
                  </TotalRebates>
                  <TotalDutiesAndTaxes>
                     <Currency>USD</Currency>
                     <Amount>0.0</Amount>
                  </TotalDutiesAndTaxes>
                  <TotalAncillaryFeesAndTaxes>
                     <Currency>USD</Currency>
                     <Amount>0.0</Amount>
                  </TotalAncillaryFeesAndTaxes>
                  <TotalDutiesTaxesAndFees>
                     <Currency>USD</Currency>
                     <Amount>0.0</Amount>
                  </TotalDutiesTaxesAndFees>
                  <TotalNetChargeWithDutiesAndTaxes>
                     <Currency>USD</Currency>
                     <Amount>35.04</Amount>
                  </TotalNetChargeWithDutiesAndTaxes>
                  <Surcharges>
                     <SurchargeType>FUEL</SurchargeType>
                     <Level>PACKAGE</Level>
                     <Description>FedEx Ground Fuel</Description>
                     <Amount>
                        <Currency>USD</Currency>
                        <Amount>2.14</Amount>
                     </Amount>
                  </Surcharges>
               </ShipmentRateDetail>
               <RatedPackages>
                  <GroupNumber>1</GroupNumber>
                  <PackageRateDetail>
                     <RateType>PAYOR_LIST_PACKAGE</RateType>
                     <RatedWeightMethod>ACTUAL</RatedWeightMethod>
                     <BillingWeight>
                        <Units>LB</Units>
                        <Value>20.0</Value>
                     </BillingWeight>
                     <BaseCharge>
                        <Currency>USD</Currency>
                        <Amount>16.45</Amount>
                     </BaseCharge>
                     <TotalFreightDiscounts>
                        <Currency>USD</Currency>
                        <Amount>0.0</Amount>
                     </TotalFreightDiscounts>
                     <NetFreight>
                        <Currency>USD</Currency>
                        <Amount>16.45</Amount>
                     </NetFreight>
                     <TotalSurcharges>
                        <Currency>USD</Currency>
                        <Amount>1.07</Amount>
                     </TotalSurcharges>
                     <NetFedExCharge>
                        <Currency>USD</Currency>
                        <Amount>17.52</Amount>
                     </NetFedExCharge>
                     <TotalTaxes>
                        <Currency>USD</Currency>
                        <Amount>0.0</Amount>
                     </TotalTaxes>
                     <NetCharge>
                        <Currency>USD</Currency>
                        <Amount>17.52</Amount>
                     </NetCharge>
                     <TotalRebates>
                        <Currency>USD</Currency>
                        <Amount>0.0</Amount>
                     </TotalRebates>
                     <Surcharges>
                        <SurchargeType>FUEL</SurchargeType>
                        <Level>PACKAGE</Level>
                        <Description>FedEx Ground Fuel</Description>
                        <Amount>
                           <Currency>USD</Currency>
                           <Amount>1.07</Amount>
                        </Amount>
                     </Surcharges>
                  </PackageRateDetail>
               </RatedPackages>
               <RatedPackages>
                  <GroupNumber>1</GroupNumber>
                  <PackageRateDetail>
                     <RateType>PAYOR_LIST_PACKAGE</RateType>
                     <RatedWeightMethod>ACTUAL</RatedWeightMethod>
                     <BillingWeight>
                        <Units>LB</Units>
                        <Value>20.0</Value>
                     </BillingWeight>
                     <BaseCharge>
                        <Currency>USD</Currency>
                        <Amount>16.45</Amount>
                     </BaseCharge>
                     <TotalFreightDiscounts>
                        <Currency>USD</Currency>
                        <Amount>0.0</Amount>
                     </TotalFreightDiscounts>
                     <NetFreight>
                        <Currency>USD</Currency>
                        <Amount>16.45</Amount>
                     </NetFreight>
                     <TotalSurcharges>
                        <Currency>USD</Currency>
                        <Amount>1.07</Amount>
                     </TotalSurcharges>
                     <NetFedExCharge>
                        <Currency>USD</Currency>
                        <Amount>17.52</Amount>
                     </NetFedExCharge>
                     <TotalTaxes>
                        <Currency>USD</Currency>
                        <Amount>0.0</Amount>
                     </TotalTaxes>
                     <NetCharge>
                        <Currency>USD</Currency>
                        <Amount>17.52</Amount>
                     </NetCharge>
                     <TotalRebates>
                        <Currency>USD</Currency>
                        <Amount>0.0</Amount>
                     </TotalRebates>
                     <Surcharges>
                        <SurchargeType>FUEL</SurchargeType>
                        <Level>PACKAGE</Level>
                        <Description>FedEx Ground Fuel</Description>
                        <Amount>
                           <Currency>USD</Currency>
                           <Amount>1.07</Amount>
                        </Amount>
                     </Surcharges>
                  </PackageRateDetail>
               </RatedPackages>
            </RatedShipmentDetails>
         </RateReplyDetails>
      </RateReply>
   </SOAP-ENV:Body>
</SOAP-ENV:Envelope>
