<SOAP-ENV:Envelope xmlns:SOAP-ENV="http://schemas.xmlsoap.org/soap/envelope/" xmlns:SOAP-ENC="http://schemas.xmlsoap.org/soap/encoding/" xmlns:xsi="http://www.w3.org/2001/XMLSchema-instance" xmlns:xsd="http://www.w3.org/2001/XMLSchema" xmlns="http://fedex.com/ws/rate/v31">
   <SOAP-ENV:Body>
      <RateRequest>
         <WebAuthenticationDetail>
            <ParentCredential>
               <Key>Input your Information</Key>
               <Password>Input your Information</Password>
            </ParentCredential>
            <UserCredential>
               <Key>Input your Information</Key>
               <Password>Input your Information</Password>
            </UserCredential>
         </WebAuthenticationDetail>
         <ClientDetail>
            <AccountNumber>Input your Information</AccountNumber>
            <MeterNumber>Input your Information</MeterNumber>
         </ClientDetail>
         <TransactionDetail>
            <CustomerTransactionId>DomesticGround with MPS</CustomerTransactionId>
         </TransactionDetail>
         <Version>
            <ServiceId>crs</ServiceId>
            <Major>31</Major>
            <Intermediate>0</Intermediate>
            <Minor>0</Minor>
         </Version>
         <RequestedShipment>
            <ShipTimestamp>2021-04-01T12:34:56-06:00</ShipTimestamp>
            <DropoffType>REGULAR_PICKUP</DropoffType>
            <ServiceType>FEDEX_GROUND</ServiceType>
            <PackagingType>YOUR_PACKAGING</PackagingType>
            <TotalWeight>
               <Units>LB</Units>
               <Value>20.0</Value>
            </TotalWeight>
            <Shipper>
               <AccountNumber>Input your Information</AccountNumber>
               <Contact>
                  <CompanyName>Input your Information</CompanyName>
                  <PhoneNumber>Input your Information</PhoneNumber>
               </Contact>
               <Address>
                  <StreetLines>SN2000 Test Meter 8</StreetLines>
                  <StreetLines>10 Fedex Parkway</StreetLines>
                  <City>Austin</City>
                  <StateOrProvinceCode>TX</StateOrProvinceCode>
                  <PostalCode>73301</PostalCode>
                  <CountryCode>US</CountryCode>
               </Address>
            </Shipper>
            <Recipient>
               <AccountNumber>Input your Information</AccountNumber>
               <Contact>
                  <PersonName>Input your Information</PersonName>
                  <PhoneNumber>Input your Information</PhoneNumber>
               </Contact>
               <Address>
                  <StreetLines>Recipient Address Line 1</StreetLines>
                  <StreetLines>Recipient Address Line 2</StreetLines>
                  <City>Collierville</City>
                  <StateOrProvinceCode>TN</StateOrProvinceCode>
                  <PostalCode>38017</PostalCode>
                  <CountryCode>US</CountryCode>
               </Address>
            </Recipient>
            <ShippingChargesPayment>
               <PaymentType>SENDER</PaymentType>
               <Payor>
                  <ResponsibleParty>
                     <AccountNumber>Input your Information</AccountNumber>
                     <Tins>
                        <TinType>BUSINESS_STATE</TinType>
                        <Number>123456</Number>
                     </Tins>
                  </ResponsibleParty>
               </Payor>
            </ShippingChargesPayment>
            <RateRequestTypes>LIST</RateRequestTypes>
            <PackageCount>2</PackageCount>
            <RequestedPackageLineItems>
               <SequenceNumber>1</SequenceNumber>
               <GroupNumber>1</GroupNumber>
               <GroupPackageCount>1</GroupPackageCount>
               <Weight>
                  <Units>LB</Units>
                  <Value>20.0</Value>
               </Weight>
               <Dimensions>
                  <Length>12</Length>
                  <Width>12</Width>
                  <Height>12</Height>
                  <Units>IN</Units>
               </Dimensions>
               <ContentRecords>
                  <PartNumber>123445</PartNumber>
                  <ItemNumber>kjdjalsro1262739827</ItemNumber>
                  <ReceivedQuantity>12</ReceivedQuantity>
                  <Description>ContentDescription</Description>
               </ContentRecords>
            </RequestedPackageLineItems>
            <RequestedPackageLineItems>
               <SequenceNumber>2</SequenceNumber>
               <GroupNumber>1</GroupNumber>
               <GroupPackageCount>1</GroupPackageCount>
               <Weight>
                  <Units>LB</Units>
                  <Value>20.0</Value>
               </Weight>
               <Dimensions>
                  <Length>12</Length>
                  <Width>12</Width>
                  <Height>12</Height>
                  <Units>IN</Units>
               </Dimensions>
               <ContentRecords>
                  <PartNumber>123445</PartNumber>
                  <ItemNumber>kjdjalsro1262739827</ItemNumber>
                  <ReceivedQuantity>12</ReceivedQuantity>
                  <Description>ContentDescription</Description>
               </ContentRecords>
            </RequestedPackageLineItems>
         </RequestedShipment>
      </RateRequest>
   </SOAP-ENV:Body>
</SOAP-ENV:Envelope>
