<SOAP-ENV:Envelope xmlns:SOAP-ENV="http://schemas.xmlsoap.org/soap/envelope/">
   <SOAP-ENV:Header/>
   <SOAP-ENV:Body>
      <RateReply xmlns="http://fedex.com/ws/rate/v31">
         <HighestSeverity>SUCCESS</HighestSeverity>
         <Notifications>
            <Severity>SUCCESS</Severity>
            <Source>crs</Source>
            <Code>0</Code>
            <Message>Request was successfully processed.</Message>
            <LocalizedMessage>Request was successfully processed.</LocalizedMessage>
         </Notifications>
         <TransactionDetail>
            <CustomerTransactionId>INTERNATIONAL_PRIORITY_FREIGHT with Your Packaging</CustomerTransactionId>
         </TransactionDetail>
         <Version>
            <ServiceId>crs</ServiceId>
            <Major>31</Major>
            <Intermediate>0</Intermediate>
            <Minor>0</Minor>
         </Version>
         <RateReplyDetails>
            <ServiceType>INTERNATIONAL_PRIORITY_FREIGHT</ServiceType>
            <ServiceDescription>
               <ServiceType>INTERNATIONAL_PRIORITY_FREIGHT</ServiceType>
               <Code>70</Code>
               <Names>
                  <Type>long</Type>
                  <Encoding>utf-8</Encoding>
                  <Value>FedEx International Priority® Freight</Value>
               </Names>
               <Names>
                  <Type>long</Type>
                  <Encoding>ascii</Encoding>
                  <Value>FedEx International Priority Freight</Value>
               </Names>
               <Names>
                  <Type>medium</Type>
                  <Encoding>utf-8</Encoding>
                  <Value>International Priority Freight</Value>
               </Names>
               <Names>
                  <Type>medium</Type>
                  <Encoding>ascii</Encoding>
                  <Value>International Priority Freight</Value>
               </Names>
               <Names>
                  <Type>short</Type>
                  <Encoding>utf-8</Encoding>
                  <Value>IPFS</Value>
               </Names>
               <Names>
                  <Type>short</Type>
                  <Encoding>ascii</Encoding>
                  <Value>IPFS</Value>
               </Names>
               <Names>
                  <Type>abbrv</Type>
                  <Encoding>ascii</Encoding>
                  <Value>F1</Value>
               </Names>
               <Description>International Priority Freight</Description>
               <AstraDescription>IPF</AstraDescription>
            </ServiceDescription>
            <PackagingType>YOUR_PACKAGING</PackagingType>
            <DestinationAirportId>YVR</DestinationAirportId>
            <IneligibleForMoneyBackGuarantee>false</IneligibleForMoneyBackGuarantee>
            <OriginServiceArea>H1</OriginServiceArea>
            <DestinationServiceArea>H2</DestinationServiceArea>
            <SignatureOption>SERVICE_DEFAULT</SignatureOption>
            <ActualRateType>PAYOR_ACCOUNT_SHIPMENT</ActualRateType>
            <RatedShipmentDetails>
               <EffectiveNetDiscount>
                  <Currency>USD</Currency>
                  <Amount>86.81</Amount>
               </EffectiveNetDiscount>
               <ShipmentRateDetail>
                  <RateType>PAYOR_ACCOUNT_SHIPMENT</RateType>
                  <RateScale>US006OFA_70_YOUR_PACKAGING</RateScale>
                  <RateZone>US006O</RateZone>
                  <RatedWeightMethod>ACTUAL</RatedWeightMethod>
                  <CurrencyExchangeRate>
                     <FromCurrency>USD</FromCurrency>
                     <IntoCurrency>USD</IntoCurrency>
                     <Rate>1.0</Rate>
                  </CurrencyExchangeRate>
                  <DimDivisor>139</DimDivisor>
                  <DimDivisorType>COUNTRY</DimDivisorType>
                  <FuelSurchargePercent>0.0</FuelSurchargePercent>
                  <TotalBillingWeight>
                     <Units>LB</Units>
                     <Value>158.0</Value>
                  </TotalBillingWeight>
                  <TotalBaseCharge>
                     <Currency>USD</Currency>
                     <Amount>1030.16</Amount>
                  </TotalBaseCharge>
                  <TotalFreightDiscounts>
                     <Currency>USD</Currency>
                     <Amount>0.0</Amount>
                  </TotalFreightDiscounts>
                  <TotalNetFreight>
                     <Currency>USD</Currency>
                     <Amount>1030.16</Amount>
                  </TotalNetFreight>
                  <TotalSurcharges>
                     <Currency>USD</Currency>
                     <Amount>210.0</Amount>
                  </TotalSurcharges>
                  <TotalNetFedExCharge>
                     <Currency>USD</Currency>
                     <Amount>1240.16</Amount>
                  </TotalNetFedExCharge>
                  <TotalTaxes>
                     <Currency>USD</Currency>
                     <Amount>0.0</Amount>
                  </TotalTaxes>
                  <TotalNetCharge>
                     <Currency>USD</Currency>
                     <Amount>1240.16</Amount>
                  </TotalNetCharge>
                  <TotalRebates>
                     <Currency>USD</Currency>
                     <Amount>0.0</Amount>
                  </TotalRebates>
                  <TotalDutiesAndTaxes>
                     <Currency>USD</Currency>
                     <Amount>0.0</Amount>
                  </TotalDutiesAndTaxes>
                  <TotalAncillaryFeesAndTaxes>
                     <Currency>USD</Currency>
                     <Amount>0.0</Amount>
                  </TotalAncillaryFeesAndTaxes>
                  <TotalDutiesTaxesAndFees>
                     <Currency>USD</Currency>
                     <Amount>0.0</Amount>
                  </TotalDutiesTaxesAndFees>
                  <TotalNetChargeWithDutiesAndTaxes>
                     <Currency>USD</Currency>
                     <Amount>1240.16</Amount>
                  </TotalNetChargeWithDutiesAndTaxes>
                  <Surcharges>
                     <SurchargeType>SATURDAY_PICKUP</SurchargeType>
                     <Description>Saturday pickup</Description>
                     <Amount>
                        <Currency>USD</Currency>
                        <Amount>210.0</Amount>
                     </Amount>
                  </Surcharges>
                  <Surcharges>
                     <SurchargeType>FUEL</SurchargeType>
                     <Description>Fuel</Description>
                     <Amount>
                        <Currency>USD</Currency>
                        <Amount>0.0</Amount>
                     </Amount>
                  </Surcharges>
               </ShipmentRateDetail>
            </RatedShipmentDetails>
            <RatedShipmentDetails>
               <ShipmentRateDetail>
                  <RateType>PAYOR_LIST_SHIPMENT</RateType>
                  <RateScale>US006OFA_70_YOUR_PACKAGING</RateScale>
                  <RateZone>US006O</RateZone>
                  <RatedWeightMethod>ACTUAL</RatedWeightMethod>
                  <CurrencyExchangeRate>
                     <FromCurrency>USD</FromCurrency>
                     <IntoCurrency>USD</IntoCurrency>
                     <Rate>1.0</Rate>
                  </CurrencyExchangeRate>
                  <DimDivisor>139</DimDivisor>
                  <DimDivisorType>COUNTRY</DimDivisorType>
                  <FuelSurchargePercent>7.0</FuelSurchargePercent>
                  <TotalBillingWeight>
                     <Units>LB</Units>
                     <Value>158.0</Value>
                  </TotalBillingWeight>
                  <TotalBaseCharge>
                     <Currency>USD</Currency>
                     <Amount>1030.16</Amount>
                  </TotalBaseCharge>
                  <TotalFreightDiscounts>
                     <Currency>USD</Currency>
                     <Amount>0.0</Amount>
                  </TotalFreightDiscounts>
                  <TotalNetFreight>
                     <Currency>USD</Currency>
                     <Amount>1030.16</Amount>
                  </TotalNetFreight>
                  <TotalSurcharges>
                     <Currency>USD</Currency>
                     <Amount>296.81</Amount>
                  </TotalSurcharges>
                  <TotalNetFedExCharge>
                     <Currency>USD</Currency>
                     <Amount>1326.97</Amount>
                  </TotalNetFedExCharge>
                  <TotalTaxes>
                     <Currency>USD</Currency>
                     <Amount>0.0</Amount>
                  </TotalTaxes>
                  <TotalNetCharge>
                     <Currency>USD</Currency>
                     <Amount>1326.97</Amount>
                  </TotalNetCharge>
                  <TotalRebates>
                     <Currency>USD</Currency>
                     <Amount>0.0</Amount>
                  </TotalRebates>
                  <TotalDutiesAndTaxes>
                     <Currency>USD</Currency>
                     <Amount>0.0</Amount>
                  </TotalDutiesAndTaxes>
                  <TotalAncillaryFeesAndTaxes>
                     <Currency>USD</Currency>
                     <Amount>0.0</Amount>
                  </TotalAncillaryFeesAndTaxes>
                  <TotalDutiesTaxesAndFees>
                     <Currency>USD</Currency>
                     <Amount>0.0</Amount>
                  </TotalDutiesTaxesAndFees>
                  <TotalNetChargeWithDutiesAndTaxes>
                     <Currency>USD</Currency>
                     <Amount>1326.97</Amount>
                  </TotalNetChargeWithDutiesAndTaxes>
                  <Surcharges>
                     <SurchargeType>SATURDAY_PICKUP</SurchargeType>
                     <Description>Saturday pickup</Description>
                     <Amount>
                        <Currency>USD</Currency>
                        <Amount>210.0</Amount>
                     </Amount>
                  </Surcharges>
                  <Surcharges>
                     <SurchargeType>FUEL</SurchargeType>
                     <Description>Fuel</Description>
                     <Amount>
                        <Currency>USD</Currency>
                        <Amount>86.81</Amount>
                     </Amount>
                  </Surcharges>
               </ShipmentRateDetail>
            </RatedShipmentDetails>
         </RateReplyDetails>
      </RateReply>
   </SOAP-ENV:Body>
</SOAP-ENV:Envelope>
