<SOAP-ENV:Envelope xmlns:SOAP-ENV="http://schemas.xmlsoap.org/soap/envelope/">
   <SOAP-ENV:Header/>
   <SOAP-ENV:Body>
      <RateReply xmlns="http://fedex.com/ws/rate/v31">
         <HighestSeverity>SUCCESS</HighestSeverity>
         <Notifications>
            <Severity>SUCCESS</Severity>
            <Source>crs</Source>
            <Code>0</Code>
            <Message>Request was successfully processed.</Message>
            <LocalizedMessage>Request was successfully processed.</LocalizedMessage>
         </Notifications>
         <TransactionDetail>
            <CustomerTransactionId>Domestic Express_INTRA IN</CustomerTransactionId>
         </TransactionDetail>
         <Version>
            <ServiceId>crs</ServiceId>
            <Major>31</Major>
            <Intermediate>0</Intermediate>
            <Minor>0</Minor>
         </Version>
         <RateReplyDetails>
            <ServiceType>FEDEX_EXPRESS_SAVER</ServiceType>
            <ServiceDescription>
               <ServiceType>FEDEX_EXPRESS_SAVER</ServiceType>
               <Code>20</Code>
               <Names>
                  <Type>long</Type>
                  <Encoding>utf-8</Encoding>
                  <Value>FedEx Economy</Value>
               </Names>
               <Names>
                  <Type>long</Type>
                  <Encoding>ascii</Encoding>
                  <Value>FedEx Economy</Value>
               </Names>
               <Names>
                  <Type>medium</Type>
                  <Encoding>utf-8</Encoding>
                  <Value>FedEx Economy</Value>
               </Names>
               <Names>
                  <Type>medium</Type>
                  <Encoding>ascii</Encoding>
                  <Value>FedEx Economy</Value>
               </Names>
               <Names>
                  <Type>short</Type>
                  <Encoding>utf-8</Encoding>
                  <Value>XS</Value>
               </Names>
               <Names>
                  <Type>short</Type>
                  <Encoding>ascii</Encoding>
                  <Value>XS</Value>
               </Names>
               <Names>
                  <Type>abbrv</Type>
                  <Encoding>ascii</Encoding>
                  <Value>XS</Value>
               </Names>
               <Description>FedEx Economy</Description>
               <AstraDescription>XS</AstraDescription>
            </ServiceDescription>
            <PackagingType>YOUR_PACKAGING</PackagingType>
            <DestinationAirportId>DEL</DestinationAirportId>
            <IneligibleForMoneyBackGuarantee>false</IneligibleForMoneyBackGuarantee>
            <OriginServiceArea>AA</OriginServiceArea>
            <DestinationServiceArea>AA</DestinationServiceArea>
            <SignatureOption>SERVICE_DEFAULT</SignatureOption>
            <ActualRateType>PAYOR_ACCOUNT_SHIPMENT</ActualRateType>
            <RatedShipmentDetails>
               <EffectiveNetDiscount>
                  <Currency>USD</Currency>
                  <Amount>0.0</Amount>
               </EffectiveNetDiscount>
               <ShipmentRateDetail>
                  <RateType>PAYOR_ACCOUNT_SHIPMENT</RateType>
                  <RateScale>0000000</RateScale>
                  <RateZone>R0003</RateZone>
                  <PricingCode>HUNDREDWEIGHT</PricingCode>
                  <RatedWeightMethod>ACTUAL</RatedWeightMethod>
                  <CurrencyExchangeRate>
                     <FromCurrency>INR</FromCurrency>
                     <IntoCurrency>USD</IntoCurrency>
                     <Rate>0.01</Rate>
                  </CurrencyExchangeRate>
                  <DimDivisor>139</DimDivisor>
                  <DimDivisorType>COUNTRY</DimDivisorType>
                  <FuelSurchargePercent>40.0</FuelSurchargePercent>
                  <TotalBillingWeight>
                     <Units>KG</Units>
                     <Value>20.0</Value>
                  </TotalBillingWeight>
                  <TotalBaseCharge>
                     <Currency>USD</Currency>
                     <Amount>8.59</Amount>
                  </TotalBaseCharge>
                  <TotalFreightDiscounts>
                     <Currency>USD</Currency>
                     <Amount>0.0</Amount>
                  </TotalFreightDiscounts>
                  <TotalNetFreight>
                     <Currency>USD</Currency>
                     <Amount>8.59</Amount>
                  </TotalNetFreight>
                  <TotalSurcharges>
                     <Currency>USD</Currency>
                     <Amount>6.56</Amount>
                  </TotalSurcharges>
                  <TotalNetFedExCharge>
                     <Currency>USD</Currency>
                     <Amount>15.15</Amount>
                  </TotalNetFedExCharge>
                  <TotalTaxes>
                     <Currency>USD</Currency>
                     <Amount>2.72</Amount>
                  </TotalTaxes>
                  <TotalNetCharge>
                     <Currency>USD</Currency>
                     <Amount>17.87</Amount>
                  </TotalNetCharge>
                  <TotalRebates>
                     <Currency>USD</Currency>
                     <Amount>0.0</Amount>
                  </TotalRebates>
                  <TotalDutiesAndTaxes>
                     <Currency>USD</Currency>
                     <Amount>0.0</Amount>
                  </TotalDutiesAndTaxes>
                  <TotalAncillaryFeesAndTaxes>
                     <Currency>USD</Currency>
                     <Amount>0.0</Amount>
                  </TotalAncillaryFeesAndTaxes>
                  <TotalDutiesTaxesAndFees>
                     <Currency>USD</Currency>
                     <Amount>0.0</Amount>
                  </TotalDutiesTaxesAndFees>
                  <TotalNetChargeWithDutiesAndTaxes>
                     <Currency>USD</Currency>
                     <Amount>17.87</Amount>
                  </TotalNetChargeWithDutiesAndTaxes>
                  <Surcharges>
                     <SurchargeType>PEAK</SurchargeType>
                     <Description>Peak Surcharge</Description>
                     <Amount>
                        <Currency>USD</Currency>
                        <Amount>0.83</Amount>
                     </Amount>
                  </Surcharges>
                  <Surcharges>
                     <SurchargeType>FEDEX_INTRACOUNTRY_FEES</SurchargeType>
                     <Description>Waybill</Description>
                     <Amount>
                        <Currency>USD</Currency>
                        <Amount>2.29</Amount>
                     </Amount>
                  </Surcharges>
                  <Surcharges>
                     <SurchargeType>EXTRA_SURFACE_HANDLING_CHARGE</SurchargeType>
                     <Description>Extra Surface Handling Charge</Description>
                     <Amount>
                        <Currency>USD</Currency>
                        <Amount>0.0</Amount>
                     </Amount>
                  </Surcharges>
                  <Surcharges>
                     <SurchargeType>FUEL</SurchargeType>
                     <Description>Fuel</Description>
                     <Amount>
                        <Currency>USD</Currency>
                        <Amount>3.44</Amount>
                     </Amount>
                  </Surcharges>
                  <Taxes>
                     <TaxType>GST</TaxType>
                     <Description>India MP CGST</Description>
                     <Amount>
                        <Currency>USD</Currency>
                        <Amount>1.36</Amount>
                     </Amount>
                  </Taxes>
                  <Taxes>
                     <TaxType>GST</TaxType>
                     <Description>India MP SGST</Description>
                     <Amount>
                        <Currency>USD</Currency>
                        <Amount>1.36</Amount>
                     </Amount>
                  </Taxes>
               </ShipmentRateDetail>
            </RatedShipmentDetails>
            <RatedShipmentDetails>
               <ShipmentRateDetail>
                  <RateType>PAYOR_LIST_SHIPMENT</RateType>
                  <RateScale>0000000</RateScale>
                  <RateZone>R0003</RateZone>
                  <PricingCode>HUNDREDWEIGHT</PricingCode>
                  <RatedWeightMethod>ACTUAL</RatedWeightMethod>
                  <CurrencyExchangeRate>
                     <FromCurrency>INR</FromCurrency>
                     <IntoCurrency>USD</IntoCurrency>
                     <Rate>0.01</Rate>
                  </CurrencyExchangeRate>
                  <DimDivisor>139</DimDivisor>
                  <DimDivisorType>COUNTRY</DimDivisorType>
                  <FuelSurchargePercent>40.0</FuelSurchargePercent>
                  <TotalBillingWeight>
                     <Units>KG</Units>
                     <Value>20.0</Value>
                  </TotalBillingWeight>
                  <TotalBaseCharge>
                     <Currency>USD</Currency>
                     <Amount>8.59</Amount>
                  </TotalBaseCharge>
                  <TotalFreightDiscounts>
                     <Currency>USD</Currency>
                     <Amount>0.0</Amount>
                  </TotalFreightDiscounts>
                  <TotalNetFreight>
                     <Currency>USD</Currency>
                     <Amount>8.59</Amount>
                  </TotalNetFreight>
                  <TotalSurcharges>
                     <Currency>USD</Currency>
                     <Amount>6.56</Amount>
                  </TotalSurcharges>
                  <TotalNetFedExCharge>
                     <Currency>USD</Currency>
                     <Amount>15.15</Amount>
                  </TotalNetFedExCharge>
                  <TotalTaxes>
                     <Currency>USD</Currency>
                     <Amount>2.72</Amount>
                  </TotalTaxes>
                  <TotalNetCharge>
                     <Currency>USD</Currency>
                     <Amount>17.87</Amount>
                  </TotalNetCharge>
                  <TotalRebates>
                     <Currency>USD</Currency>
                     <Amount>0.0</Amount>
                  </TotalRebates>
                  <TotalDutiesAndTaxes>
                     <Currency>USD</Currency>
                     <Amount>0.0</Amount>
                  </TotalDutiesAndTaxes>
                  <TotalAncillaryFeesAndTaxes>
                     <Currency>USD</Currency>
                     <Amount>0.0</Amount>
                  </TotalAncillaryFeesAndTaxes>
                  <TotalDutiesTaxesAndFees>
                     <Currency>USD</Currency>
                     <Amount>0.0</Amount>
                  </TotalDutiesTaxesAndFees>
                  <TotalNetChargeWithDutiesAndTaxes>
                     <Currency>USD</Currency>
                     <Amount>17.87</Amount>
                  </TotalNetChargeWithDutiesAndTaxes>
                  <Surcharges>
                     <SurchargeType>PEAK</SurchargeType>
                     <Description>Peak Surcharge</Description>
                     <Amount>
                        <Currency>USD</Currency>
                        <Amount>0.83</Amount>
                     </Amount>
                  </Surcharges>
                  <Surcharges>
                     <SurchargeType>FEDEX_INTRACOUNTRY_FEES</SurchargeType>
                     <Description>Waybill</Description>
                     <Amount>
                        <Currency>USD</Currency>
                        <Amount>2.29</Amount>
                     </Amount>
                  </Surcharges>
                  <Surcharges>
                     <SurchargeType>EXTRA_SURFACE_HANDLING_CHARGE</SurchargeType>
                     <Description>Extra Surface Handling Charge</Description>
                     <Amount>
                        <Currency>USD</Currency>
                        <Amount>0.0</Amount>
                     </Amount>
                  </Surcharges>
                  <Surcharges>
                     <SurchargeType>FUEL</SurchargeType>
                     <Description>Fuel</Description>
                     <Amount>
                        <Currency>USD</Currency>
                        <Amount>3.44</Amount>
                     </Amount>
                  </Surcharges>
                  <Taxes>
                     <TaxType>GST</TaxType>
                     <Description>India MP CGST</Description>
                     <Amount>
                        <Currency>USD</Currency>
                        <Amount>1.36</Amount>
                     </Amount>
                  </Taxes>
                  <Taxes>
                     <TaxType>GST</TaxType>
                     <Description>India MP SGST</Description>
                     <Amount>
                        <Currency>USD</Currency>
                        <Amount>1.36</Amount>
                     </Amount>
                  </Taxes>
               </ShipmentRateDetail>
            </RatedShipmentDetails>
         </RateReplyDetails>
      </RateReply>
   </SOAP-ENV:Body>
</SOAP-ENV:Envelope>
