<svg id="dashboard-interface" xmlns="http://www.w3.org/2000/svg" width="19" height="19" viewBox="0 0 19 19">
  <g id="Group_46" data-name="Group 46">
    <path id="Path_127" data-name="Path 127" d="M17.813,4.75H1.188A1.189,1.189,0,0,1,0,3.563V1.188A1.189,1.189,0,0,1,1.188,0H17.813A1.189,1.189,0,0,1,19,1.188V3.563A1.189,1.189,0,0,1,17.813,4.75ZM1.188.792a.4.4,0,0,0-.4.4V3.563a.4.4,0,0,0,.4.4H17.813a.4.4,0,0,0,.4-.4V1.188a.4.4,0,0,0-.4-.4Z" fill="#441b89"/>
  </g>
  <g id="Group_47" data-name="Group 47" transform="translate(0 6.333)">
    <path id="Path_128" data-name="Path 128" d="M7.521,20.667H1.188A1.189,1.189,0,0,1,0,19.479V9.188A1.189,1.189,0,0,1,1.188,8H7.521A1.189,1.189,0,0,1,8.708,9.188V19.479A1.189,1.189,0,0,1,7.521,20.667ZM1.188,8.792a.4.4,0,0,0-.4.4V19.479a.4.4,0,0,0,.4.4H7.521a.4.4,0,0,0,.4-.4V9.188a.4.4,0,0,0-.4-.4Z" transform="translate(0 -8)" fill="#441b89"/>
  </g>
  <g id="Group_48" data-name="Group 48" transform="translate(10.292 6.333)">
    <path id="Path_129" data-name="Path 129" d="M20.521,13.542H14.188A1.189,1.189,0,0,1,13,12.354V9.188A1.189,1.189,0,0,1,14.188,8h6.333a1.189,1.189,0,0,1,1.188,1.188v3.167A1.189,1.189,0,0,1,20.521,13.542Zm-6.333-4.75a.4.4,0,0,0-.4.4v3.167a.4.4,0,0,0,.4.4h6.333a.4.4,0,0,0,.4-.4V9.188a.4.4,0,0,0-.4-.4Z" transform="translate(-13 -8)" fill="#441b89"/>
  </g>
  <g id="Group_49" data-name="Group 49" transform="translate(10.292 13.458)">
    <path id="Path_130" data-name="Path 130" d="M20.521,22.542H14.188A1.189,1.189,0,0,1,13,21.354V18.188A1.189,1.189,0,0,1,14.188,17h6.333a1.189,1.189,0,0,1,1.188,1.188v3.167A1.189,1.189,0,0,1,20.521,22.542Zm-6.333-4.75a.4.4,0,0,0-.4.4v3.167a.4.4,0,0,0,.4.4h6.333a.4.4,0,0,0,.4-.4V18.188a.4.4,0,0,0-.4-.4Z" transform="translate(-13 -17)" fill="#441b89"/>
  </g>
</svg>
