<svg version="1.2" baseProfile="tiny-ps" xmlns="http://www.w3.org/2000/svg" viewBox="0 0 60 60" width="60" height="60">
	<title>lorry-svg</title>
	<style>
		tspan { white-space:pre }
		.shp0 { fill: #182937 } 
	</style>
	<g id="lorry">
		<g id="Group_16">
			<g id="Group_15">
				<path id="Path_116" fill-rule="evenodd" class="shp0" d="M16.34 38.91C16.66 38.91 16.97 38.97 17.27 39.09C17.56 39.21 17.83 39.39 18.06 39.62C18.28 39.84 18.46 40.11 18.58 40.4C18.7 40.7 18.77 41.02 18.77 41.33C18.77 42.32 18.18 43.2 17.27 43.58C16.36 43.95 15.32 43.75 14.62 43.05C13.93 42.36 13.72 41.31 14.09 40.4C14.47 39.5 15.36 38.91 16.34 38.91ZM16.34 42.14C16.44 42.14 16.55 42.12 16.65 42.08C16.75 42.04 16.83 41.98 16.91 41.91C16.99 41.83 17.04 41.74 17.09 41.64C17.13 41.55 17.15 41.44 17.15 41.33C17.15 41.01 16.95 40.71 16.65 40.59C16.35 40.46 16 40.53 15.77 40.76C15.53 40.99 15.47 41.34 15.59 41.64C15.72 41.95 16.01 42.14 16.34 42.14Z" />
				<path id="Path_117" fill-rule="evenodd" class="shp0" d="M42.24 38.91C42.56 38.91 42.87 38.97 43.17 39.09C43.46 39.21 43.73 39.39 43.96 39.62C44.18 39.84 44.36 40.11 44.48 40.4C44.6 40.7 44.67 41.02 44.67 41.33C44.67 42.32 44.08 43.2 43.17 43.58C42.26 43.95 41.22 43.75 40.52 43.05C39.83 42.36 39.62 41.31 39.99 40.4C40.37 39.5 41.26 38.9 42.24 38.91ZM42.24 42.14C42.34 42.14 42.45 42.12 42.55 42.08C42.65 42.04 42.73 41.98 42.81 41.91C42.89 41.83 42.94 41.74 42.99 41.64C43.03 41.55 43.05 41.44 43.05 41.33C43.05 41.01 42.85 40.71 42.55 40.59C42.25 40.46 41.9 40.53 41.67 40.76C41.43 40.99 41.37 41.34 41.49 41.64C41.62 41.95 41.91 42.14 42.24 42.14Z" />
				<path id="Path_118" fill-rule="evenodd" class="shp0" d="M52.95 27.38C53.05 27.49 53.14 27.61 53.21 27.74C53.29 27.86 53.35 28 53.41 28.14C53.46 28.27 53.5 28.42 53.52 28.56C53.55 28.71 53.56 28.85 53.56 29L53.56 39.72C53.56 40.03 53.5 40.35 53.37 40.65C53.25 40.94 53.07 41.21 52.85 41.43C52.62 41.66 52.35 41.84 52.06 41.96C51.77 42.08 51.45 42.14 51.13 42.15L47.83 42.15C47.64 43.49 46.96 44.72 45.93 45.61C44.9 46.5 43.59 46.99 42.23 46.99C40.87 46.99 39.56 46.5 38.53 45.61C37.5 44.72 36.83 43.49 36.63 42.15L21.93 42.15C21.74 43.49 21.06 44.72 20.03 45.61C19 46.5 17.69 46.99 16.33 46.99C14.97 46.99 13.66 46.5 12.63 45.61C11.6 44.72 10.93 43.49 10.73 42.15L9.05 42.15C8.73 42.14 8.41 42.08 8.12 41.96C7.82 41.84 7.56 41.66 7.33 41.43C7.11 41.21 6.93 40.94 6.8 40.65C6.68 40.35 6.62 40.03 6.62 39.72L6.62 37.29L5.81 37.29C5.7 37.29 5.6 37.27 5.5 37.23C5.4 37.18 5.31 37.13 5.24 37.05C5.16 36.97 5.1 36.89 5.06 36.79C5.02 36.69 5 36.58 5 36.48L5 15.43C5 15.11 5.06 14.79 5.19 14.5C5.31 14.21 5.49 13.94 5.71 13.71C5.94 13.49 6.21 13.31 6.5 13.19C6.79 13.06 7.11 13 7.43 13L35.76 13C36.08 13 36.4 13.06 36.69 13.19C36.99 13.31 37.25 13.49 37.48 13.71C37.7 13.94 37.88 14.21 38 14.5C38.13 14.79 38.19 15.11 38.19 15.43L38.19 20.28L45.56 20.28C45.73 20.28 45.9 20.3 46.07 20.34C46.24 20.37 46.4 20.43 46.56 20.5C46.71 20.57 46.86 20.65 47 20.75C47.14 20.86 47.26 20.97 47.38 21.1L52.95 27.38ZM36.57 35.67L36.57 15.43C36.57 15.32 36.55 15.22 36.51 15.12C36.47 15.02 36.41 14.93 36.33 14.86C36.26 14.78 36.17 14.72 36.07 14.68C35.97 14.64 35.87 14.62 35.76 14.62L7.43 14.62C7.32 14.62 7.22 14.64 7.12 14.68C7.02 14.72 6.93 14.78 6.86 14.86C6.78 14.93 6.72 15.02 6.68 15.12C6.64 15.22 6.62 15.32 6.62 15.43L6.62 35.67L36.57 35.67ZM10.73 40.52C10.77 40.22 10.84 39.92 10.94 39.62C11.03 39.33 11.15 39.04 11.29 38.77C11.43 38.49 11.59 38.23 11.77 37.98C11.95 37.73 12.15 37.5 12.38 37.29L8.24 37.29L8.24 39.72C8.24 39.82 8.26 39.93 8.3 40.02C8.34 40.12 8.4 40.21 8.48 40.29C8.55 40.36 8.64 40.42 8.74 40.46C8.84 40.5 8.94 40.52 9.05 40.52L10.73 40.52ZM16.33 45.38C16.86 45.38 17.39 45.28 17.88 45.07C18.37 44.87 18.82 44.57 19.19 44.19C19.57 43.82 19.87 43.37 20.07 42.88C20.27 42.39 20.38 41.86 20.38 41.33C20.38 39.7 19.39 38.22 17.88 37.59C16.37 36.97 14.63 37.31 13.47 38.47C12.31 39.63 11.96 41.37 12.59 42.88C13.22 44.39 14.69 45.38 16.33 45.38L16.33 45.38ZM24.43 37.29L20.29 37.29C20.51 37.5 20.71 37.73 20.9 37.98C21.08 38.23 21.24 38.49 21.38 38.77C21.52 39.04 21.64 39.33 21.73 39.62C21.82 39.92 21.89 40.22 21.93 40.52L24.43 40.52L24.43 37.29ZM31.71 37.29L26.05 37.29L26.05 40.52L31.72 40.52L31.71 37.29ZM36.64 40.52C36.68 40.22 36.75 39.92 36.84 39.62C36.93 39.33 37.05 39.04 37.19 38.77C37.33 38.49 37.49 38.23 37.67 37.98C37.86 37.73 38.06 37.5 38.28 37.29L33.34 37.29L33.34 40.52L36.64 40.52ZM42.24 45.38C42.77 45.38 43.3 45.28 43.79 45.07C44.28 44.87 44.73 44.57 45.1 44.2C45.48 43.82 45.78 43.37 45.98 42.88C46.18 42.39 46.29 41.86 46.29 41.33C46.29 39.7 45.3 38.22 43.79 37.59C42.28 36.97 40.53 37.31 39.38 38.47C38.22 39.63 37.87 41.37 38.5 42.88C39.13 44.39 40.6 45.38 42.24 45.38L42.24 45.38ZM51.96 32.43L43.86 32.43C43.54 32.43 43.22 32.37 42.93 32.24C42.63 32.12 42.37 31.94 42.14 31.72C41.91 31.49 41.74 31.22 41.61 30.93C41.49 30.63 41.43 30.32 41.43 30L41.43 21.9L38.19 21.9L38.19 35.67L42.24 35.67C42.92 35.67 43.59 35.79 44.22 36.03C44.85 36.26 45.44 36.61 45.95 37.05C46.46 37.5 46.88 38.02 47.21 38.62C47.53 39.21 47.75 39.85 47.84 40.52L51.14 40.52C51.25 40.52 51.36 40.5 51.45 40.46C51.55 40.42 51.64 40.36 51.72 40.29C51.79 40.21 51.85 40.12 51.89 40.02C51.93 39.93 51.95 39.82 51.95 39.71L51.96 32.43ZM51.95 30.8L51.95 28.99C51.95 28.94 51.94 28.89 51.93 28.84C51.93 28.8 51.91 28.75 51.89 28.7C51.88 28.66 51.85 28.61 51.83 28.57C51.8 28.53 51.77 28.49 51.74 28.45L46.16 22.17C46.12 22.13 46.08 22.09 46.04 22.06C45.99 22.02 45.94 21.99 45.89 21.97C45.84 21.95 45.78 21.93 45.72 21.92C45.67 21.91 45.61 21.9 45.55 21.9L43.04 21.9L43.04 30C43.04 30.11 43.07 30.22 43.11 30.31C43.15 30.41 43.21 30.5 43.28 30.58C43.36 30.65 43.45 30.71 43.54 30.75C43.64 30.79 43.75 30.81 43.85 30.81L51.95 30.81L51.95 30.8Z" />
			</g>
		</g>
	</g>
</svg>