<svg xmlns="http://www.w3.org/2000/svg" width="20" height="37" viewBox="0 0 20 37">
  <text id="_" data-name="+" transform="translate(0 30)" font-size="28" font-family="SegoeUI, Segoe UI"><tspan x="0" y="0">+</tspan></text>
</svg>
