<svg xmlns="http://www.w3.org/2000/svg" width="14.2" height="18.082" viewBox="0 0 14.2 18.082">
  <g id="open-box_2_" data-name="open-box (2)" transform="translate(-0.5 0)">
    <path id="Path_131" data-name="Path 131" d="M14.572,7.9l-.88-1.5-.037-.052a.352.352,0,0,0-.143-.1L8.918,4.707V3.633H9.5a.353.353,0,0,0,.3-.546L7.9.161a.353.353,0,0,0-.593,0L5.4,3.087a.353.353,0,0,0,.3.545H6.28V4.707l-4.6,1.541a.351.351,0,0,0-.172.149L.626,7.9a.924.924,0,0,0,.456,1.326l.375.149V15.1a1.02,1.02,0,0,0,.658.95l5.359,2.013a.352.352,0,0,0,.248,0l5.359-2.013a1.02,1.02,0,0,0,.658-.95V9.376l.375-.149A.925.925,0,0,0,14.572,7.9ZM7.6,1,8.849,2.926H8.565a.353.353,0,0,0-.353.353V6.392H6.987V3.279a.353.353,0,0,0-.353-.353H6.35ZM6.633,7.1H8.565a.353.353,0,0,0,.353-.353V5.452L12.344,6.6,7.6,8.427,2.854,6.6,6.28,5.452V6.745a.353.353,0,0,0,.353.353ZM1.218,8.439a.216.216,0,0,1,.018-.181l.729-1.244,5.1,1.964-.882,1.328a.219.219,0,0,1-.263.082L1.344,8.571a.215.215,0,0,1-.126-.132ZM13.034,15.1a.31.31,0,0,1-.2.289L7.953,17.219V15.473a.353.353,0,1,0-.706,0v1.746L2.365,15.385a.31.31,0,0,1-.2-.289V9.657l3.492,1.387a.915.915,0,0,0,.338.065.929.929,0,0,0,.773-.412l.479-.721v2.3a.353.353,0,0,0,.706,0v-2.3l.479.721a.929.929,0,0,0,.773.412.915.915,0,0,0,.338-.065l3.492-1.387Zm.947-6.657a.215.215,0,0,1-.126.132L9.282,10.388a.22.22,0,0,1-.263-.082L8.137,8.977l5.1-1.964.729,1.244a.216.216,0,0,1,.018.181Zm0,0" transform="translate(0 0)" fill="#fff"/>
    <path id="Path_132" data-name="Path 132" d="M191.9,383.447a.353.353,0,1,1,.348-.3A.357.357,0,0,1,191.9,383.447Zm0,0" transform="translate(-184.297 -369.225)" fill="#fff"/>
  </g>
</svg>
