<svg xmlns="http://www.w3.org/2000/svg" width="17.227" height="19.141" viewBox="0 0 17.227 19.141">
  <g id="Outline" transform="translate(-40 -16)">
    <path id="Path_133" data-name="Path 133" d="M211.828,57.914a1.914,1.914,0,1,0-1.914,1.914A1.914,1.914,0,0,0,211.828,57.914Zm-3.19,0a1.276,1.276,0,1,1,1.276,1.276A1.276,1.276,0,0,1,208.638,57.914Z" transform="translate(-161.3 -38.405)" fill="#fff"/>
    <path id="Path_134" data-name="Path 134" d="M171.326,24.875a.319.319,0,0,0,.366,0,10.153,10.153,0,0,0,1.653-1.528,5.993,5.993,0,0,0,1.673-3.838,3.509,3.509,0,1,0-7.019,0,5.992,5.992,0,0,0,1.673,3.838A10.152,10.152,0,0,0,171.326,24.875Zm.183-8.237a2.874,2.874,0,0,1,2.871,2.871c0,2.283-2.213,4.188-2.871,4.7-.66-.516-2.871-2.418-2.871-4.7A2.874,2.874,0,0,1,171.509,16.638Z" transform="translate(-122.896)" fill="#fff"/>
    <path id="Path_135" data-name="Path 135" d="M0,0H.638V.668H0Z" transform="matrix(0.294, -0.956, 0.956, 0.294, 44.376, 32.573)" fill="#fff"/>
    <path id="Path_136" data-name="Path 136" d="M0,0H.638V.668H0Z" transform="matrix(0.294, -0.956, 0.956, 0.294, 45.652, 32.964)" fill="#fff"/>
    <path id="Path_137" data-name="Path 137" d="M0,0H.638V.668H0Z" transform="matrix(0.294, -0.956, 0.956, 0.294, 46.928, 33.358)" fill="#fff"/>
    <path id="Path_138" data-name="Path 138" d="M57,164.9l-4.785-1.472-.188.61,3.795,1.167-7.21,2.218-7.21-2.218,3.794-1.167-.188-.61L40.225,164.9a.319.319,0,0,0-.225.3v8.614a.319.319,0,0,0,.225.3l8.295,2.552a.319.319,0,0,0,.188,0L57,174.127a.319.319,0,0,0,.225-.3v-8.614a.319.319,0,0,0-.225-.3Zm-16.364.737L48.295,168v7.946l-7.657-2.356Zm8.295,10.3V168l7.657-2.356v7.946Z" transform="translate(0 -141.552)" fill="#fff"/>
    <path id="Path_139" data-name="Path 139" d="M0,0H.668V.638H0Z" transform="matrix(0.956, -0.294, 0.294, 0.956, 52.669, 31.97)" fill="#fff"/>
    <path id="Path_140" data-name="Path 140" d="M0,0H.668V.638H0Z" transform="matrix(0.956, -0.294, 0.294, 0.956, 53.945, 31.578)" fill="#fff"/>
    <path id="Path_141" data-name="Path 141" d="M0,0H.668V.638H0Z" transform="matrix(0.956, -0.294, 0.294, 0.956, 55.222, 31.184)" fill="#fff"/>
    <path id="Path_142" data-name="Path 142" d="M107.509,261.676a.319.319,0,0,0,.319-.319v-1.6a.319.319,0,0,0-.225-.3l-3.19-.982a.319.319,0,0,0-.413.3v1.6a.319.319,0,0,0,.225.3l3.19.982A.32.32,0,0,0,107.509,261.676Zm-.319-.751-2.552-.785v-.928l2.552.785Z" transform="translate(-61.448 -232.792)" fill="#fff"/>
    <path id="Path_143" data-name="Path 143" d="M315.828,260.375v-1.6a.319.319,0,0,0-.413-.3l-3.19.982a.319.319,0,0,0-.225.3v1.6a.319.319,0,0,0,.413.3l3.19-.982A.319.319,0,0,0,315.828,260.375Zm-.638-.236-2.552.785V260l2.552-.785Z" transform="translate(-261.153 -232.792)" fill="#fff"/>
  </g>
</svg>
