<svg width="496" height="496" viewBox="0 0 496 496" fill="none" xmlns="http://www.w3.org/2000/svg">
<g clip-path="url(#clip0)">
<path d="M248.08 0H247.928C111.216 0 0 111.224 0 247.992C0 302.224 17.504 352.52 47.224 393.352L16.336 485.504L111.648 455.032C150.848 480.984 197.648 496 248.08 496C384.8 496 496 384.752 496 248C496 111.232 384.8 0 248.08 0ZM392.368 350.2C386.408 367.104 362.64 381.104 343.696 385.2C330.72 387.96 313.816 390.152 256.832 366.528C183.944 336.352 137.008 262.288 133.368 257.464C129.864 252.656 103.92 218.248 103.92 182.672C103.92 147.096 121.992 129.744 129.288 122.304C135.264 116.184 145.176 113.432 154.648 113.432C157.72 113.432 160.472 113.576 162.96 113.704C170.248 114.008 173.888 114.456 178.696 125.96C184.672 140.384 199.248 175.968 201 179.608C202.744 183.256 204.504 188.208 202.016 193.016C199.68 197.976 197.648 200.184 194.008 204.4C190.352 208.616 186.848 211.84 183.216 216.352C179.864 220.288 176.064 224.52 180.304 231.808C184.536 238.968 199.104 262.72 220.528 281.808C248.216 306.448 270.664 314.328 278.688 317.68C284.656 320.168 291.808 319.568 296.184 314.912C301.72 308.928 308.576 299.024 315.568 289.256C320.52 282.24 326.792 281.376 333.344 283.848C340.056 286.176 375.488 303.68 382.776 307.328C390.048 310.976 394.864 312.72 396.608 315.784C398.352 318.864 398.352 333.288 392.368 350.2Z" fill="#4CAF50"/>
<path d="M0 247.992C0 302.224 17.504 352.52 47.224 393.352L16.336 485.504L111.648 455.032C150.848 480.984 197.648 496 248.08 496C384.8 496 496 384.752 496 248C496 111.232 384.8 0 248.08 0H247.928L0 247.992ZM392.368 350.2C386.408 367.104 362.64 381.104 343.696 385.2C330.72 387.96 313.816 390.152 256.832 366.528C183.944 336.352 137.008 262.288 133.368 257.464C129.864 252.656 103.92 218.248 103.92 182.672C103.92 147.096 121.992 129.744 129.288 122.304C135.264 116.184 145.176 113.432 154.648 113.432C157.72 113.432 160.472 113.576 162.96 113.704C170.248 114.008 173.888 114.456 178.696 125.96C184.672 140.384 199.248 175.968 201 179.608C202.744 183.256 204.504 188.208 202.016 193.016C199.68 197.976 197.648 200.184 194.008 204.4C190.352 208.616 186.848 211.84 183.216 216.352C179.864 220.288 176.064 224.52 180.304 231.808C184.536 238.968 199.104 262.72 220.528 281.808C248.216 306.448 270.664 314.328 278.688 317.68C284.656 320.168 291.808 319.568 296.184 314.912C301.72 308.928 308.576 299.024 315.568 289.256C320.52 282.24 326.792 281.376 333.344 283.848C340.056 286.176 375.488 303.68 382.776 307.328C390.048 310.976 394.864 312.72 396.608 315.784C398.352 318.864 398.352 333.288 392.368 350.2Z" fill="#4CAF50"/>
<path d="M327.368 13.0801C390.6 67.1361 431.872 149.76 431.872 219.712C431.872 258.24 419.32 294.288 397.52 325.256C397.232 331.648 395.816 340.472 392.36 350.2C386.4 367.104 362.632 381.104 343.688 385.2C340.184 385.944 336.352 386.632 331.56 386.784C290.056 412.664 238.616 427.984 182.896 427.984C132.72 427.984 86.0399 415.528 46.9359 394.152L16.3359 485.504L111.648 455.032C150.848 480.984 197.648 496 248.08 496C384.8 496 496 384.752 496 248C496 138.976 425.296 46.2401 327.368 13.0801Z" fill="#4CAF50"/>
<path d="M333.336 283.856C335 284.432 338.392 285.936 342.68 287.912L176.952 122.192C177.528 123.288 178.112 124.544 178.696 125.968C184.672 140.392 199.248 175.976 201 179.616C202.744 183.264 204.504 188.216 202.016 193.024C199.68 197.984 197.648 200.192 194.008 204.408C190.352 208.624 186.848 211.848 183.216 216.36C179.864 220.296 176.064 224.528 180.304 231.816C184.536 238.976 199.104 262.728 220.528 281.816C248.216 306.456 270.664 314.336 278.688 317.688C284.656 320.176 291.808 319.576 296.184 314.92C301.72 308.936 308.576 299.032 315.568 289.264C320.512 282.248 326.792 281.384 333.336 283.856Z" fill="#4CAF50"/>
<path d="M103.936 182.896L102.304 184.536L104.088 186.312C104.024 185.176 103.936 184.04 103.936 182.896Z" fill="#5CAA4F"/>
</g>
<defs>
<clipPath id="clip0">
<rect width="496" height="496" fill="white"/>
</clipPath>
</defs>
</svg>
